{
  "version" : "3.1",
  "softwareId" : "com.domain.division.team.product",
  "tax1098E" : {
    "lenderNameAddress" : {
      "line1" : "line1",
      "line2" : "line2",
      "line3" : "line3",
      "city" : "city",
      "state" : "state",
      "postalCode" : "postalCode",
      "name1" : "name1",
      "name2" : "name2",
      "phone" : {
        "number" : "number",
        "extension" : "extension"
      }
    },
    "lenderTin" : "lenderTin",
    "borrowerTin" : "borrowerTin",
    "borrowerNameAddress" : {
      "line1" : "line1",
      "line2" : "line2",
      "line3" : "line3",
      "city" : "city",
      "state" : "state",
      "postalCode" : "postalCode",
      "name1" : "name1",
      "name2" : "name2"
    },
    "accountNumber" : "accountNumber",
    "studentLoanInterest" : 1000.0,
    "box1ExcludesFees" : true
  }
}