{
  "version" : "3.1",
  "softwareId" : "com.domain.division.team.product",
  "tax1099Int" : {
    "payerNameAddress" : {
      "line1" : "line1",
      "line2" : "line2",
      "line3" : "line3",
      "city" : "city",
      "state" : "state",
      "postalCode" : "postalCode",
      "name1" : "name1",
      "name2" : "name2",
      "phone" : {
        "number" : "number",
        "extension" : "extension"
      }
    },
    "payerTin" : "payerTin",
    "recipientTin" : "recipientTin",
    "recipientNameAddress" : {
      "line1" : "line1",
      "line2" : "line2",
      "line3" : "line3",
      "city" : "city",
      "state" : "state",
      "postalCode" : "postalCode",
      "name1" : "name1",
      "name2" : "name2"
    },
    "foreignAccountTaxCompliance" : true,
    "accountNumber" : "accountNumber",
    "payerRtn" : "payerRtn",
    "interestIncome" : 1000.0,
    "earlyWithdrawalPenalty" : 1000.0,
    "usBondInterest" : 1000.0,
    "federalTaxWithheld" : 1000.0,
    "investmentExpenses" : 1000.0,
    "foreignTaxPaid" : 1000.0,
    "foreignCountry" : "foreignCountry",
    "taxExemptInterest" : 1000.0,
    "specifiedPabInterest" : 1000.0,
    "marketDiscount" : 1000.0,
    "bondPremium" : 1000.0,
    "usBondPremium" : 1000.0,
    "taxExemptBondPremium" : 1000.0,
    "cusipNumber" : "cusipNumber",
    "stateTaxWithholding" : [ {
      "stateTaxWithheld" : 100.0,
      "state" : "state",
      "stateTaxId" : "stateTaxId",
      "stateIncome" : 100.0
    } ],
    "foreignIncomes" : [ {
      "description" : "description",
      "amount" : 100.0
    } ],
    "stateTaxExemptIncome" : [ {
      "description" : "description",
      "amount" : 100.0
    } ]
  }
}