{
  "appId": "com.taxdochub.smartphoneapp",
  "appName": "TaxDocHub",
  "bundledWebRuntime": false,
  "npmClient": "npm",
  "webDir": "www",
  "plugins": {
    "SplashScreen": {
      "showSpinner": true
    }
  }
}
